{
  "name": "CustomIcons",
  "css_prefix_text": "",
  "css_use_suffix": false,
  "hinting": true,
  "units_per_em": 1000,
  "ascent": 850,
  "glyphs": [
    {
      "uid": "d0dc352ca7a511fb781c7c5a800e627a",
      "css": "filter",
      "code": 59415,
      "src": "custom_icons",
      "selected": true,
      "svg": {
        "path": "M537.9 529.2H1006.8C1022.8 529.2 1035.5 516.7 1035.5 501.1 1035.5 485.4 1022.8 472.9 1006.8 472.9H537.9C524.5 407.8 465.7 358.4 395.1 358.4 324.5 358.4 265.6 407.8 252.3 472.9H43.5C27.6 472.9 14.8 485.4 14.8 501.1 14.8 516.7 27.6 529.2 43.5 529.2H252.3C265.6 594.3 324.5 643.7 395.1 643.7 465.5 643.7 524.5 594.5 537.9 529.2ZM306.9 501.1C306.9 453.4 346.4 414.6 395.1 414.6 443.8 414.6 483.3 453.4 483.3 501.1 483.3 548.7 443.8 587.5 395.1 587.5 346.4 587.5 306.9 548.7 306.9 501.1ZM778.5 185H1006.8C1022.8 185 1035.5 172.5 1035.5 156.9 1035.5 141.3 1022.8 128.8 1006.8 128.8L778.5 128.8C765.2 63.6 706.3 14.3 635.7 14.3 565.1 14.3 506.3 63.6 492.9 128.8L43.5 128.8C27.6 128.8 14.8 141.3 14.8 156.9 14.8 172.5 27.6 185 43.5 185L493.1 185C506.5 250.1 565.4 299.5 635.9 299.5 706.5 299.5 765.2 250.1 778.5 185ZM547.5 156.9C547.5 109.2 587 70.5 635.7 70.5 684.4 70.5 723.9 109.2 723.9 156.9 723.9 204.5 684.4 243.3 635.7 243.3 587 243.3 547.5 204.3 547.5 156.9ZM778.5 871.2H1006.8C1022.8 871.2 1035.5 858.7 1035.5 843.1 1035.5 827.5 1022.8 815 1006.8 815L778.5 815C765.2 749.8 706.3 700.5 635.7 700.5 565.1 700.5 506.3 749.8 492.9 815H43.3C27.4 815 14.6 827.5 14.6 843.1 14.6 858.7 27.4 871.2 43.3 871.2H493.1C506.5 936.4 565.4 985.7 635.9 985.7 706.5 985.7 765.2 936.6 778.5 871.2ZM547.5 843.1C547.5 795.4 587 756.7 635.7 756.7 684.4 756.7 723.9 795.4 723.9 843.1 723.9 890.8 684.4 929.5 635.7 929.5 587 929.5 547.5 890.8 547.5 843.1Z",
        "width": 1050
      },
      "search": [
        "vector-1"
      ]
    },
    {
      "uid": "cf0921901f99756e3ad98c403161b843",
      "css": "search",
      "code": 59416,
      "src": "custom_icons",
      "selected": true,
      "svg": {
        "path": "M987.8 929L747.3 688.6C806.9 615.9 842.9 522.9 842.9 421.4 842.9 188.8 654.1 0 421.4 0 188.6 0 0 188.8 0 421.4 0 654.1 188.6 842.9 421.4 842.9 522.9 842.9 615.7 807.1 688.4 747.6L928.8 987.8C945.1 1004.1 971.4 1004.1 987.8 987.8 1004.1 971.6 1004.1 945.1 987.8 929ZM421.4 759C235.1 759 83.7 607.5 83.7 421.4 83.7 235.3 235.1 83.7 421.4 83.7 607.5 83.7 759.2 235.3 759.2 421.4 759.2 607.5 607.5 759 421.4 759Z",
        "width": 1000
      },
      "search": [
        "vector"
      ]
    },
    {
      "uid": "46057af2bf77a242ee3cda0ac71caf68",
      "css": "minus",
      "code": 59417,
      "src": "custom_icons",
      "selected": true,
      "svg": {
        "path": "M353.5 855.9C156.6 855.9 0 694.6 0 497.6 0 300.7 156.6 144.1 353.5 144.1H9641.4C9838.4 144.1 10000 300.7 10000 497.6 10000 694.6 9838.4 856.2 9641.4 856.2L353.5 855.9Z",
        "width": 10000
      },
      "search": [
        "vector-(2)"
      ]
    },
    {
      "uid": "122a82abe1eeee3bc20f3446376b53f3",
      "css": "heart_full",
      "code": 59392,
      "src": "custom_icons",
      "selected": true,
      "svg": {
        "path": "M538.5 981.5C523.1 981.5 508.3 975.9 496.8 965.8 453.3 927.8 411.4 892 374.4 860.4L374.2 860.3C265.7 767.7 172 687.8 106.8 609.1 33.9 521.1 0 437.7 0 346.5 0 257.9 30.3 176.2 85.4 116.4 141.2 55.9 217.7 22.6 300.8 22.6 363 22.6 419.9 42.3 470.1 81 495.3 100.6 518.3 124.6 538.5 152.5 558.7 124.6 581.6 100.6 606.9 81 657 42.3 713.9 22.6 776.1 22.6 859.2 22.6 935.7 55.9 991.5 116.4 1046.6 176.2 1076.9 257.9 1076.9 346.5 1076.9 437.7 1043 521.1 970.1 609.1 904.9 687.8 811.2 767.7 702.8 860.2 665.7 891.9 623.7 927.7 580.1 965.9 568.6 975.9 553.8 981.5 538.5 981.5Z",
        "width": 1077
      },
      "search": [
        "vector-12"
      ]
    },
    {
      "uid": "30851d8ddf3d3f60b4985e3dd8b6705f",
      "css": "heart",
      "code": 59393,
      "src": "custom_icons",
      "selected": true,
      "svg": {
        "path": "M538.5 958.9C523.1 958.9 508.3 953.3 496.8 943.2 453.3 905.2 411.4 869.4 374.4 837.8L374.2 837.7C265.7 745.1 172 665.2 106.8 586.5 33.9 498.5 0 415.1 0 323.9 0 235.3 30.3 153.6 85.4 93.8 141.2 33.3 217.7 0 300.8 0 363 0 419.9 19.7 470.1 58.5 495.3 78 518.3 102 538.5 129.9 558.7 102 581.6 78 606.9 58.5 657 19.7 713.9 0 776.1 0 859.2 0 935.8 33.3 991.5 93.8 1046.6 153.6 1076.9 235.3 1076.9 323.9 1076.9 415.1 1043 498.5 970.1 586.5 904.9 665.2 811.2 745.1 702.8 837.7 665.7 869.3 623.7 905.1 580.1 943.3 568.6 953.3 553.8 958.9 538.5 958.9ZM300.8 63.1C235.5 63.1 175.5 89.2 131.8 136.6 87.5 184.7 63.1 251.3 63.1 323.9 63.1 400.6 91.5 469.1 155.4 546.2 217.1 620.7 308.8 699 415.1 789.6L415.3 789.8C452.4 821.5 494.5 857.4 538.4 895.7 582.5 857.3 624.6 821.3 661.9 789.6 768.1 699 859.9 620.7 921.6 546.2 985.4 469.1 1013.8 400.6 1013.8 323.9 1013.8 251.3 989.4 184.7 945.1 136.6 901.5 89.2 841.4 63.1 776.1 63.1 728.2 63.1 684.3 78.4 645.5 108.4 610.9 135.2 586.8 169 572.7 192.7 565.4 204.9 552.6 212.1 538.5 212.1 524.3 212.1 511.5 204.9 504.3 192.7 490.1 169 466.1 135.2 431.5 108.4 392.7 78.4 348.7 63.1 300.8 63.1Z",
        "width": 1077
      },
      "search": [
        "vector-11"
      ]
    },
    {
      "uid": "d1c0b68fa0a7982d5c25edcfc83101a5",
      "css": "person",
      "code": 59394,
      "src": "custom_icons",
      "selected": true,
      "svg": {
        "path": "M853.6 646.4C799.1 592 734.3 551.7 663.6 527.3 739.3 475.1 789.1 387.8 789.1 289.1 789.1 129.7 659.4 0 500 0 340.6 0 210.9 129.7 210.9 289.1 210.9 387.8 260.7 475.1 336.4 527.3 265.7 551.7 200.9 592 146.4 646.4 52 740.9 0 866.4 0 1000H78.1C78.1 767.4 267.4 578.1 500 578.1 732.6 578.1 921.9 767.4 921.9 1000H1000C1000 866.4 948 740.9 853.6 646.4ZM500 500C383.7 500 289.1 405.4 289.1 289.1 289.1 172.8 383.7 78.1 500 78.1 616.3 78.1 710.9 172.8 710.9 289.1 710.9 405.4 616.3 500 500 500Z",
        "width": 1000
      },
      "search": [
        "vector"
      ]
    },
    {
      "uid": "20a7b1223792b3309c525a17df858ca0",
      "css": "fill_star",
      "code": 59395,
      "src": "custom_icons",
      "selected": true,
      "svg": {
        "path": "M1000 369.6C1000 354.8 988.8 345.6 966.3 341.9L664.7 298.1 529.5 24.6C521.8 8.2 512 0 500 0 488 0 478.2 8.2 470.6 24.6L335.3 298.1 33.6 341.9C11.2 345.6 0 354.8 0 369.6 0 378 5 387.6 15 398.4L233.8 611.2 182.1 911.7C181.3 917.3 180.9 921.3 180.9 923.7 180.9 932.1 183 939.2 187.2 945 191.4 950.8 197.7 953.7 206.1 953.7 213.3 953.7 221.4 951.3 230.2 946.5L500 804.7 769.8 946.5C778.3 951.3 786.3 953.7 793.9 953.7 810.3 953.7 818.5 943.7 818.5 923.7 818.5 918.5 818.3 914.5 817.9 911.7L766.2 611.2 984.4 398.5C994.8 388 1000 378.4 1000 369.6Z",
        "width": 1000
      },
      "search": [
        "vector"
      ]
    },
    {
      "uid": "096e501d6aa12b932fb63b43e05c6b1b",
      "css": "arrowBack",
      "code": 59396,
      "src": "custom_icons",
      "selected": true,
      "svg": {
        "path": "M1530.7 427.1H236.5L545.3 118.2C572.3 91.2 572.3 47.3 545.3 20.3 518.2-6.8 474.4-6.8 447.4 20.3L20.3 447.4C-6.8 474.4-6.8 518.3 20.3 545.3L447.4 972.4C460.9 985.9 478.6 992.7 496.3 992.7 514 992.7 531.8 985.9 545.3 972.4 572.3 945.4 572.3 901.5 545.3 874.5L236.5 565.6H1530.7C1569 565.6 1600 534.6 1600 496.3 1600 458.1 1569 427.1 1530.7 427.1Z",
        "width": 1600
      },
      "search": [
        "vector-10"
      ]
    },
    {
      "uid": "bb25d4068db2aff1b21237b1ae87306f",
      "css": "openField",
      "code": 59397,
      "src": "custom_icons",
      "selected": true,
      "svg": {
        "path": "M446.9 393.7C471.6 349.8 518.1 319.7 572.1 319.7 651.8 319.7 716.3 384.3 716.3 463.9 716.3 465.1 716.2 466.2 716 467.3 715.9 468.3 715.7 469.3 715.7 470.4 758 485.1 788.5 524.9 788.5 572.1 788.5 631.8 740 680.3 680.3 680.3H319.7C260 680.3 211.5 631.8 211.5 572.1 211.5 512.4 260 463.9 319.7 463.9 321 463.9 322.3 464.1 323.5 464.3 324.4 464.4 325.3 464.5 326.2 464.6 340.9 422.3 380.6 391.8 427.9 391.8 434.4 391.8 440.7 392.6 446.9 393.7ZM680.3 462.6C679.6 403.6 631.3 355.8 572.1 355.8 533.5 355.8 497.6 377.1 478.3 411.4L465.7 433.8 440.5 429.2C435.3 428.3 431.4 427.9 427.9 427.9 397.5 427.9 370.3 447.4 360.2 476.5L351.2 502.4 323.8 500.6C322 500.5 320.3 500.2 318.6 500 279.4 500.6 247.6 532.7 247.6 572.1 247.6 611.9 280 644.2 319.7 644.2H680.3C720.1 644.2 752.4 611.9 752.4 572.1 752.4 541.8 732.9 514.5 703.9 504.4L678.8 495.7 679.7 469.2C679.8 467 680 464.8 680.3 462.6ZM500 1000C776.1 1000 1000 776.1 1000 500 1000 223.9 776.1 0 500 0 223.9 0 0 223.9 0 500 0 776.1 223.9 1000 500 1000ZM500 942.9C744.6 942.9 942.9 744.6 942.9 500 942.9 255.4 744.6 57.1 500 57.1 255.4 57.1 57.1 255.4 57.1 500 57.1 744.6 255.4 942.9 500 942.9Z",
        "width": 1000
      },
      "search": [
        "union-5"
      ]
    },
    {
      "uid": "424717e1b2708c3575ac77d90b352174",
      "css": "Shower",
      "code": 59398,
      "src": "custom_icons",
      "selected": true,
      "svg": {
        "path": "M350.5 264.1C350.9 261.2 355.7 261.2 356.1 264.1 362.4 315 382.2 344.9 399.8 371.5 416 396 430.4 417.7 430.4 450.4 430.4 492.5 395.1 526.6 353.3 526.6 311.5 526.6 276.2 492.5 276.2 450.4 276.2 417.7 290.5 396 306.8 371.5 324.4 344.9 344.2 315 350.5 264.1ZM643.9 264.1C644.3 261.2 649.1 261.2 649.5 264.1 655.8 315 675.6 344.9 693.2 371.5 709.5 396 723.8 417.7 723.8 450.4 723.8 492.5 688.5 526.6 646.7 526.6 604.9 526.6 569.6 492.5 569.6 450.4 569.6 417.7 584 396 600.2 371.5 617.8 344.9 637.6 315 643.9 264.1ZM453.5 583C471.1 556.5 490.9 526.6 497.2 475.7 497.6 472.7 502.4 472.7 502.8 475.7 509.1 526.6 528.9 556.5 546.5 583 562.7 607.5 577.1 629.2 577.1 661.9 577.1 704 541.8 738.1 500 738.1 458.2 738.1 422.9 704 422.9 661.9 422.9 629.2 437.2 607.5 453.5 583ZM1000 500C1000 776.1 776.1 1000 500 1000 223.9 1000 0 776.1 0 500 0 223.9 223.9 0 500 0 776.1 0 1000 223.9 1000 500ZM942.9 500C942.9 744.6 744.6 942.9 500 942.9 255.4 942.9 57.1 744.6 57.1 500 57.1 255.4 255.4 57.1 500 57.1 744.6 57.1 942.9 255.4 942.9 500Z",
        "width": 1000
      },
      "search": [
        "union-4"
      ]
    },
    {
      "uid": "586e1fadd00217674d7add5c3fc69782",
      "css": "dressing",
      "code": 59399,
      "src": "custom_icons",
      "selected": true,
      "svg": {
        "path": "M556.5 454.2L779.4 593.5C798.3 605.2 809.5 625.5 809.5 647.8 809.5 683 780.8 711.8 745.5 711.8H254.5C219.2 711.8 190.5 683 190.5 647.8 190.5 625.5 201.7 605.2 220.6 593.5L443.4 454.2C447.3 451.7 451.8 450.4 456.4 450.4H475.5V419C475.5 405.5 486.5 394.5 500 394.5 522.7 394.5 541.2 376 541.2 353.3 541.2 330.6 522.7 312.1 500 312.1 477.3 312.1 458.8 330.6 458.8 353.3 458.8 366.8 447.8 377.8 434.3 377.8 420.8 377.8 409.9 366.8 409.9 353.3 409.9 303.6 450.3 263.2 500 263.2 549.7 263.2 590.1 303.6 590.1 353.3 590.1 394.5 562.3 429.4 524.5 440.1V450.4H543.6C548.2 450.4 552.7 451.7 556.5 454.2ZM254.5 662.9H745.5C753.8 662.9 760.6 656.1 760.6 647.8 760.6 642.5 758 637.7 753.5 634.9L536.6 499.4H463.4L246.5 634.9C242 637.7 239.4 642.5 239.4 647.8 239.4 656.1 246.2 662.9 254.5 662.9ZM1000 500C1000 776.1 776.1 1000 500 1000 223.9 1000 0 776.1 0 500 0 223.9 223.9 0 500 0 776.1 0 1000 223.9 1000 500ZM942.9 500C942.9 744.6 744.6 942.9 500 942.9 255.4 942.9 57.1 744.6 57.1 500 57.1 255.4 255.4 57.1 500 57.1 744.6 57.1 942.9 255.4 942.9 500Z",
        "width": 1000
      },
      "search": [
        "union-3"
      ]
    },
    {
      "uid": "1d94262c8941ef41d550ed924b793908",
      "css": "inventory",
      "code": 59400,
      "src": "custom_icons",
      "selected": true,
      "svg": {
        "path": "M677 615.3C700.8 615.9 721.8 629.2 732 650.2 732.3 650.9 732.7 651.7 733 652.4 736.6 660.8 738.4 669.7 738 678.3 736.9 707.7 713.8 739 673 739H639C604.9 739 572.4 722.5 552.3 695L552.1 694.8 500 621.6 447.9 694.8 447.7 695C427.6 722.5 395.1 739 361 739H327C286.2 739 263.1 707.7 261.9 678.3 261.6 669.7 263.4 660.8 267 652.4 267.3 651.7 267.7 650.9 268 650.2 278.1 629.2 299.2 615.9 323 615.3 337.6 615 351.2 619.1 362.2 627.4L419.4 670.6 477.2 589.5 265.4 292.2C259.4 283.9 261.3 272.2 269.7 266.3 278.1 260.3 289.7 262.3 295.7 270.6L580.5 670.6 637.8 627.4C648.8 619.1 662.3 615 677 615.3ZM327 701.8H361C371.3 701.8 381.3 699.5 390.4 695.3L339.8 657.1C335.7 654 330.6 652.5 324.7 652.5L323.9 652.5C314 652.7 305.6 657.9 301.5 666.4 301.4 666.7 301.2 667 301.1 667.3 299.7 670.5 299 673.9 299.1 676.9 299.6 688.9 308.5 701.8 327 701.8ZM673 701.8C691.5 701.8 700.4 688.9 700.9 676.9 701 673.9 700.3 670.5 698.9 667.3 698.9 667.2 698.8 667.1 698.8 667 698.7 666.8 698.6 666.6 698.5 666.4 694.4 657.9 686 652.7 676.1 652.5 669.8 652.4 664.5 653.9 660.2 657.1L609.5 695.3C618.7 699.5 628.7 701.8 639 701.8H673ZM704.3 270.7L530.3 518.1C524.4 526.5 526.5 538.1 534.9 544 538.1 546.3 541.8 547.4 545.5 547.4 551.4 547.4 557.1 544.7 560.8 539.5L734.7 292.1C740.6 283.7 738.6 272.1 730.2 266.2 721.8 260.3 710.2 262.3 704.3 270.7ZM1000 500C1000 776.1 776.1 1000 500 1000 223.9 1000 0 776.1 0 500 0 223.9 223.9 0 500 0 776.1 0 1000 223.9 1000 500ZM942.9 500C942.9 744.6 744.6 942.9 500 942.9 255.4 942.9 57.1 744.6 57.1 500 57.1 255.4 255.4 57.1 500 57.1 744.6 57.1 942.9 255.4 942.9 500Z",
        "width": 1000
      },
      "search": [
        "union-1"
      ]
    },
    {
      "uid": "4732cb2fc3d64a952f603b5c553fb4b9",
      "css": "parking",
      "code": 59401,
      "src": "custom_icons",
      "selected": true,
      "svg": {
        "path": "M853.6 146.4C759.1 52 633.6 0 500 0 366.4 0 240.9 52 146.4 146.4 52 240.9 0 366.4 0 500 0 633.6 52 759.1 146.4 853.6 240.9 948 366.4 1000 500 1000 633.6 1000 759.1 948 853.6 853.6 948 759.1 1000 633.6 1000 500 1000 366.4 948 240.9 853.6 146.4ZM812.1 812.1C728.8 895.5 617.9 941.4 500 941.4 382.1 941.4 271.2 895.5 187.9 812.1 104.5 728.8 58.6 617.9 58.6 500 58.6 382.1 104.5 271.2 187.9 187.9 271.2 104.5 382.1 58.6 500 58.6 617.9 58.6 728.8 104.5 812.1 187.9 895.5 271.2 941.4 382.1 941.4 500 941.4 617.9 895.5 728.8 812.1 812.1ZM539.1 197.3H363.3C347.1 197.3 334 210.4 334 226.6V793C334 809.1 347.1 822.3 363.3 822.3 379.5 822.3 392.6 809.1 392.6 793V607.4H539.1C652.1 607.4 744.1 515.4 744.1 402.3 744.1 289.3 652.1 197.3 539.1 197.3ZM539.1 548.8H392.6V255.9H539.1C619.8 255.9 685.5 321.6 685.5 402.3 685.5 483.1 619.8 548.8 539.1 548.8Z",
        "width": 1000
      },
      "search": [
        "vector-9"
      ]
    },
    {
      "uid": "462ad296797d0f9837c9e84fba1f29b3",
      "css": "countOfFields",
      "code": 59402,
      "src": "custom_icons",
      "selected": true,
      "svg": {
        "path": "M53.5 122.2C53.5 84.3 84.3 53.5 122.2 53.5H397C434.9 53.5 465.7 84.3 465.7 122.2V397C465.7 434.9 434.9 465.7 397 465.7H122.2C84.3 465.7 53.5 434.9 53.5 397V122.2ZM122.2 101.6H397C408.3 101.6 417.6 110.8 417.6 122.2V397C417.6 408.3 408.3 417.6 397 417.6H122.2C110.8 417.6 101.6 408.3 101.6 397V122.2C101.6 110.8 110.8 101.6 122.2 101.6ZM534.4 122.2C534.4 84.3 565.1 53.5 603 53.5H877.8C915.8 53.5 946.5 84.3 946.5 122.2V397C946.5 434.9 915.8 465.7 877.8 465.7H603C565.1 465.7 534.4 434.9 534.4 397V122.2ZM603 101.6H877.8C889.2 101.6 898.4 110.8 898.4 122.2V397C898.4 408.3 889.2 417.6 877.8 417.6H603C591.7 417.6 582.4 408.3 582.4 397V122.2C582.4 110.8 591.7 101.6 603 101.6ZM53.5 603C53.5 565.1 84.3 534.3 122.2 534.3H397C434.9 534.3 465.7 565.1 465.7 603V877.8C465.7 915.8 434.9 946.5 397 946.5H122.2C84.3 946.5 53.5 915.8 53.5 877.8V603ZM122.2 582.4H397C408.3 582.4 417.6 591.7 417.6 603V877.8C417.6 889.2 408.3 898.4 397 898.4H122.2C110.8 898.4 101.6 889.2 101.6 877.8V603C101.6 591.7 110.8 582.4 122.2 582.4ZM534.4 603C534.4 565.1 565.1 534.3 603 534.3H877.8C915.8 534.3 946.5 565.1 946.5 603V877.8C946.5 915.8 915.8 946.5 877.8 946.5H603C565.1 946.5 534.4 915.8 534.4 877.8V603ZM603 582.4H877.8C889.2 582.4 898.4 591.7 898.4 603V877.8C898.4 889.2 889.2 898.4 877.8 898.4H603C591.7 898.4 582.4 889.2 582.4 877.8V603C582.4 591.7 591.7 582.4 603 582.4ZM53.5 122.2C53.5 84.3 84.3 53.5 122.2 53.5H397C434.9 53.5 465.7 84.3 465.7 122.2V397C465.7 434.9 434.9 465.7 397 465.7H122.2C84.3 465.7 53.5 434.9 53.5 397V122.2ZM122.2 101.6H397C408.3 101.6 417.6 110.8 417.6 122.2V397C417.6 408.3 408.3 417.6 397 417.6H122.2C110.8 417.6 101.6 408.3 101.6 397V122.2C101.6 110.8 110.8 101.6 122.2 101.6ZM534.4 122.2C534.4 84.3 565.1 53.5 603 53.5H877.8C915.8 53.5 946.5 84.3 946.5 122.2V397C946.5 434.9 915.8 465.7 877.8 465.7H603C565.1 465.7 534.4 434.9 534.4 397V122.2ZM603 101.6H877.8C889.2 101.6 898.4 110.8 898.4 122.2V397C898.4 408.3 889.2 417.6 877.8 417.6H603C591.7 417.6 582.4 408.3 582.4 397V122.2C582.4 110.8 591.7 101.6 603 101.6ZM53.5 603C53.5 565.1 84.3 534.3 122.2 534.3H397C434.9 534.3 465.7 565.1 465.7 603V877.8C465.7 915.8 434.9 946.5 397 946.5H122.2C84.3 946.5 53.5 915.8 53.5 877.8V603ZM122.2 582.4H397C408.3 582.4 417.6 591.7 417.6 603V877.8C417.6 889.2 408.3 898.4 397 898.4H122.2C110.8 898.4 101.6 889.2 101.6 877.8V603C101.6 591.7 110.8 582.4 122.2 582.4ZM534.4 603C534.4 565.1 565.1 534.3 603 534.3H877.8C915.8 534.3 946.5 565.1 946.5 603V877.8C946.5 915.8 915.8 946.5 877.8 946.5H603C565.1 946.5 534.4 915.8 534.4 877.8V603ZM603 582.4H877.8C889.2 582.4 898.4 591.7 898.4 603V877.8C898.4 889.2 889.2 898.4 877.8 898.4H603C591.7 898.4 582.4 889.2 582.4 877.8V603C582.4 591.7 591.7 582.4 603 582.4Z",
        "width": 1000
      },
      "search": [
        "union"
      ]
    },
    {
      "uid": "c5009f1d8849e0e1b25b0184ca4084f2",
      "css": "s_all",
      "code": 59403,
      "src": "custom_icons",
      "selected": true,
      "svg": {
        "path": "M430.1 675.4L461.9 658.6 477.9 692.3 446 709.2 430.1 675.4ZM238.2 776.2L270.1 759.3 286 793.1 254.2 809.9 238.2 776.2ZM302 742.5L333.8 725.6 349.7 759.4 317.9 776.2 302 742.5ZM365.7 708.8L397.5 691.9 413.5 725.6 381.6 742.5 365.7 708.8ZM558.8 676.3L574.7 642.6 606.6 659.5 590.6 693.2 558.8 676.3ZM622.5 710.2L638.4 676.5 670.3 693.3 654.4 727.1 622.5 710.2ZM750.8 777.2L766.7 743.4 798.6 760.3 782.7 794 750.8 777.2ZM686.2 744L702.2 710.2 734 727.1 718.1 760.8 686.2 744ZM1039.7 838.1L993.8 813.8 1012.8 874.3 871.8 799.7V415.1C871.8 411.6 870.9 408.2 869.2 405.2 867.4 402.2 865 399.8 862 398.2L551.2 233.6V73.2L593.7 118.3V64L533.3 0 472.9 64V118.3L515.5 73.2V233.6L204.7 398.2C201.7 399.8 199.2 402.2 197.5 405.2 195.7 408.2 194.8 411.6 194.8 415.1V799.7L53.8 874.3 72.9 813.8 27 838.1 0 923.9 81 952.5 126.9 928.2 69.8 908.1 212.6 832.4 525.4 998C527.8 999.3 530.5 1000 533.3 1000 536.1 1000 538.8 999.2 541.2 997.9L541.3 998 854 832.4 996.9 908.1 939.7 928.2 985.6 952.5 1066.7 923.9 1039.7 838.1ZM533.3 563.8L252.5 415.1 533.3 266.4 814.2 415.1 533.3 563.8ZM230.5 445.6L515.5 596.6V629.8L493.5 641.5 509.4 675.3 515.5 672V950.6L230.5 799.7V445.6ZM551.2 950.6V596.6L836.2 445.6V780.8L830.1 777.6 814.2 811.3 551.2 950.6ZM515.5 499H551.1V532.5H515.5V499ZM515.5 431.9H551.1V465.4H515.5V431.9ZM515.5 297.7H551.1V331.2H515.5V297.7ZM515.5 364.8H551.1V398.3H515.5V364.8Z",
        "width": 1067
      },
      "search": [
        "vector-7"
      ]
    },
    {
      "uid": "345e7565a9a46032707346dbe331515e",
      "css": "plus",
      "code": 59405,
      "src": "custom_icons",
      "selected": true,
      "svg": {
        "path": "M35.7 535.6C16 535.6 0.3 519.4 0.3 499.7 0.3 480.1 16 464.4 35.7 464.4H464.2V35.8C464.2 16.2 480.4 0 500.1 0 519.8 0 535.4 16.2 535.4 35.8V464.4H964C983.6 464.4 999.8 480.1 999.8 499.7 999.8 519.4 983.6 535.6 964 535.6H535.4V964.2C535.4 983.8 519.8 1000 500.1 1000 480.4 1000 464.2 983.8 464.2 964.2V535.6H35.7Z",
        "width": 1000
      },
      "search": [
        "vector-5"
      ]
    },
    {
      "uid": "c413f6c0da0bad8c0ec011546bad7f76",
      "css": "map",
      "code": 59406,
      "src": "custom_icons",
      "selected": true,
      "svg": {
        "path": "M30.4 379C30.5 169.8 200 0.2 409.2 0 618.3 0.3 787.7 169.9 787.8 379 787.8 581.6 441.7 973 423.9 993.2L423.6 993.5C423.4 993.7 423.2 994 423 994.2L422.5 994.6 422.1 995C414.1 1002.2 401.7 1001.5 394.6 993.5 379.7 976.9 30.4 582.5 30.4 379ZM409.1 545.5C509.5 545.5 590.9 464.1 590.9 363.6 590.9 263.2 509.5 181.8 409.1 181.8 308.7 181.8 227.3 263.2 227.3 363.6 227.3 464.1 308.7 545.5 409.1 545.5Z",
        "width": 818
      },
      "search": [
        "subtract"
      ]
    },
    {
      "uid": "2b2f41ab89debb5de46470a6348335e5",
      "css": "exit",
      "code": 59407,
      "src": "custom_icons",
      "selected": true,
      "svg": {
        "path": "M498.3 916.7H124.6C101.7 916.7 83.1 898 83.1 875V125C83.1 102 101.7 83.3 124.6 83.3H498.3C521.3 83.3 539.9 64.7 539.9 41.7 539.9 18.6 521.3 0 498.3 0H124.6C55.9 0 0 56.1 0 125V875C0 943.9 55.9 1000 124.6 1000H498.3C521.3 1000 539.9 981.4 539.9 958.3 539.9 935.3 521.3 916.7 498.3 916.7ZM987.6 470.3L735.1 220.3C718.9 204.2 692.5 204.4 676.4 220.7 660.3 237.1 660.5 263.5 676.8 279.7L857.3 458.3H373.8C350.8 458.3 332.2 477 332.2 500 332.2 523 350.8 541.7 373.8 541.7H857.3L676.8 720.3C660.5 736.5 660.3 762.9 676.4 779.3 684.5 787.5 695.3 791.7 706 791.7 716.5 791.7 727.1 787.7 735.1 779.7L987.6 529.7C995.5 521.8 1000 511.2 1000 500 1000 488.8 995.6 478.2 987.6 470.3Z",
        "width": 1000
      },
      "search": [
        "vector-4"
      ]
    },
    {
      "uid": "6dd25bfc18f4497f1ae2f218b7c971f1",
      "css": "connect",
      "code": 59408,
      "src": "custom_icons",
      "selected": true,
      "svg": {
        "path": "M489.4 1000L335.6 733.6H143.4C64.3 733.6 0 675.3 0 603.5V130.1C0 58.3 64.4 0 143.4 0H835.5C914.5 0 978.8 58.3 978.8 130.1V603.5C978.8 675.3 914.5 733.6 835.5 733.6H643.2L489.4 1000ZM143.4 72.1C104.1 72.1 72.1 98.1 72.1 130.1V603.5C72.1 635.5 104.1 661.5 143.4 661.5H377.2L489.3 855.9 601.5 661.5H835.4C874.7 661.5 906.7 635.5 906.7 603.5V130.1C906.7 98.1 874.6 72.1 835.4 72.1H143.4Z",
        "width": 1000
      },
      "search": [
        "vector-3"
      ]
    },
    {
      "uid": "af5d498c9f8a44caa017b36bf17bac57",
      "css": "ring",
      "code": 59409,
      "src": "custom_icons",
      "selected": true,
      "svg": {
        "path": "M800 600V333.3C800 149.2 650.8 0 466.7 0 282.6 0 133.3 149.2 133.3 333.3V600L0 866.7H303.4C318.8 942.7 386 1000 466.7 1000 547.3 1000 614.5 942.7 630 866.7H933.3L800 600ZM466.7 933.3C423.2 933.3 386.6 905.4 372.8 866.7H560.6C546.8 905.4 510.1 933.3 466.7 933.3ZM100 800L200 600V333.3C200 186.1 319.4 66.7 466.7 66.7 613.9 66.7 733.3 186.1 733.3 333.3V600L833.3 800 100 800Z",
        "width": 955
      },
      "search": [
        "vector-2"
      ]
    },
    {
      "uid": "1db2bface6e563c402fe47398e2bb501",
      "css": "settings",
      "code": 59410,
      "src": "custom_icons",
      "selected": true,
      "svg": {
        "path": "M927.4 372.3L878.6 364C874.3 351.9 869.4 340.1 864 328.6L892.7 288.4C917.7 253.3 913.7 205.9 883.2 175.7L824.6 117.1C808.1 100.6 786.1 91.4 762.8 91.4 744.5 91.4 726.9 97.1 712.2 107.7L671.9 136.4C659.4 130.5 646.7 125.3 634 120.8L625.9 73C618.8 30.7 582.5 0 539.6 0H456.8C413.9 0 377.6 30.7 370.5 72.9L362.1 122.6C350.1 127 338.3 131.9 326.7 137.5L287.1 109C272.3 98.3 254.7 92.6 236.2 92.6 212.6 92.6 190.7 101.8 174.3 118.4L115.6 176.9C85.2 207.3 81.3 254.6 106.1 289.6L135.3 330.6C129.9 342.1 125.1 354 120.8 366.2L73 374.3C30.7 381.4 0 417.7 0 460.6V543.4C0 586.3 30.7 622.6 72.9 629.7L122.6 638.1C127 650.1 131.9 661.9 137.5 673.5L109.1 713C84.1 748.1 88.1 795.5 118.5 825.6L177.1 884.2C193.7 900.8 215.6 909.9 238.9 909.9 257.3 909.9 274.8 904.3 289.6 893.7L330.6 864.5C341.3 869.5 352.5 874.1 364 878.2L372.1 927C379.2 969.3 415.5 1000 458.4 1000H541.4C584.3 1000 620.6 969.3 627.7 927L636 878.3C648.1 873.9 659.9 869 671.4 863.6L711.5 892.2C726.3 902.9 744 908.6 762.4 908.6 785.7 908.6 807.7 899.4 824.3 882.9L882.8 824.3C913.2 793.9 917.2 746.5 892.3 711.6L863.6 671.3C869.1 659.5 874 647.6 878.3 635.8L927 627.7C969.3 620.6 1000 584.3 1000 541.4V458.8C1000.5 415.8 970 379.5 927.4 372.3ZM941.4 541.4C941.4 555.6 931.3 567.6 917.3 569.9L852.7 580.7C840.8 582.7 831.2 591.1 827.6 602.6 821.9 621.2 814 640.2 804.2 659.1 798.7 669.7 799.5 682.4 806.5 692.2L844.6 745.6C852.8 757.1 851.5 772.8 841.4 782.8L782.8 841.4C777.2 847 770.2 850 762.4 850 756.3 850 750.5 848.1 745.6 844.6L692.4 806.6C682.6 799.5 669.9 798.7 659.2 804.2 641.3 813.6 622.3 821.5 602.7 827.6 591.2 831.2 582.9 840.8 580.9 852.6L569.9 917.3C567.6 931.3 555.6 941.4 541.4 941.4H458.4C444.2 941.4 432.2 931.3 429.9 917.3L419.1 852.7C417.1 840.9 408.8 831.3 397.4 827.7 378 821.6 359.6 814 342.6 805.2 338 802.8 333 801.6 328 801.6 321.5 801.6 315.1 803.6 309.6 807.5L255.4 846C250.6 849.6 245 851.3 238.9 851.3 231.2 851.3 224.1 848.4 218.6 842.8L159.8 784.1C149.8 774.2 148.6 758.6 156.7 747.1L194.6 694.5C201.7 684.6 202.5 671.8 196.8 661 187.2 642.9 179.2 624 173.1 604.7 169.5 593.4 159.9 585.1 148.2 583.1L82.7 571.9C68.7 569.5 58.6 557.5 58.6 543.4V460.6C58.6 446.4 68.7 434.4 82.7 432L146.5 421.3C158.5 419.3 168.1 410.8 171.6 399.2 177.6 379.5 185.4 360.5 194.6 342.6 200.1 332 199.3 319.4 192.3 309.6L153.9 255.6C145.6 244 147 228.4 157 218.4L215.8 159.8 216 159.6C221.3 154.2 228.4 151.2 236.2 151.2 242.3 151.2 248.1 153.1 252.9 156.5L305.7 194.6C315.6 201.7 328.5 202.5 339.2 196.8 357.3 187.2 376.2 179.2 395.4 173.1 406.8 169.5 415.1 160 417.1 148.2L428.3 82.7C430.6 68.7 442.6 58.6 456.8 58.6H539.6C553.8 58.6 565.8 68.7 568.2 82.7L578.9 146.6C580.9 158.5 589.4 168.1 601 171.6 620.8 177.6 640.5 185.8 659.6 195.8 670.3 201.3 683 200.5 692.8 193.5L746.3 155.3C751.2 151.8 756.7 150 762.8 150 770.6 150 777.6 153 783.2 158.6L841.9 217.3C851.9 227.2 853.2 242.8 845 254.3L806.9 307.6C799.9 317.4 799.1 330.1 804.6 340.8 814 358.7 821.9 377.7 828 397.3 831.6 408.8 841.2 417.1 853 419.1L917.6 430.1 917.7 430.1C931.6 432.4 941.6 444.2 941.4 458.2V541.4ZM500 305.6C392.8 305.6 305.6 392.8 305.6 500 305.6 607.2 392.8 694.4 500 694.4 607.2 694.4 694.4 607.2 694.4 500 694.4 392.8 607.2 305.6 500 305.6ZM500 635.8C425.1 635.8 364.2 574.9 364.2 500 364.2 425.1 425.1 364.2 500 364.2 574.9 364.2 635.8 425.1 635.8 500 635.8 574.9 574.9 635.8 500 635.8Z",
        "width": 1000
      },
      "search": [
        "vector-1"
      ]
    },
    {
      "uid": "89cb0cbdeaf5dfd02faca80382cfd15b",
      "css": "reservation",
      "code": 59411,
      "src": "custom_icons",
      "selected": true,
      "svg": {
        "path": "M838.2 616.3L431.4 209.6C370.1 148.7 271.1 148.9 210 210 148.9 271.1 148.7 370.1 209.6 431.4L542.4 764.3C556 777.9 578.1 777.9 591.7 764.3 605.3 750.7 605.3 728.6 591.7 715L258.9 382.1C224.8 348.1 224.8 292.9 258.9 258.9 292.9 224.8 348.1 224.8 382.1 258.9L789 665.6C850.3 726.9 850.2 826.3 788.9 887.5 727.6 948.8 628.3 948.8 567 887.5L135.6 456.1C49.4 367.2 50.5 225.6 138.1 138.1 225.6 50.5 367.2 49.4 456.1 135.6L825.9 505.4C834.7 514.2 847.5 517.6 859.5 514.4 871.6 511.2 881 501.8 884.2 489.8 887.4 477.7 884 464.9 875.2 456.1L505.4 86.3C389.6-29 202.3-28.7 86.8 86.8-28.7 202.3-29 389.6 86.3 505.4L517.8 936.8C606.8 1022.3 747.8 1020.9 835.1 933.6 922.3 846.3 923.7 705.3 838.2 616.3Z",
        "width": 909
      },
      "search": [
        "vector"
      ]
    },
    {
      "uid": "e3f1413a114872537f30018598068a79",
      "css": "map-1",
      "code": 59412,
      "src": "custom_icons",
      "selected": true,
      "svg": {
        "path": "M1000 0C893.8 0 807.7 86.1 807.7 192.3 807.7 221 814 248.3 825.3 272.7L1000 615.4 1174.7 272.7C1186 248.3 1192.3 221 1192.3 192.3 1192.3 86.1 1106.2 0 1000 0ZM1000 307.7C936.3 307.7 884.6 256 884.6 192.3 884.6 128.6 936.3 76.9 1000 76.9 1063.7 76.9 1115.4 128.6 1115.4 192.3 1115.4 256 1063.7 307.7 1000 307.7ZM1057.5 671.8L1127.6 811.7 950 900.5 890.5 602.8 901.6 591.8 864.9 519.7 846.2 538.5 615.4 384.6 384.6 538.5 230.8 384.6 0 846.2 307.7 1000 615.4 846.2 923.1 1000 1230.8 846.2 1101 586.6 1057.5 671.8ZM280.6 900.5L103.2 811.7 251.8 514.4 340.2 602.8 280.6 900.5ZM576.9 779.4L361.8 886.9 417.4 609.1 576.9 502.7V779.4ZM653.8 779.4V502.7L803.5 602.5 813.3 609.1 868.9 886.9 653.8 779.4Z",
        "width": 1231
      },
      "search": [
        "vector-3"
      ]
    },
    {
      "uid": "4a7bbacd6e3e09ac8cdba7247a90d096",
      "css": "field",
      "code": 59413,
      "src": "custom_icons",
      "selected": true,
      "svg": {
        "path": "M1312.8 115.4V884.6C1312.8 948.2 1261.1 1000 1197.4 1000H115.4C51.8 1000 0 948.2 0 884.6L0 115.4C0 51.8 51.8 0 115.4 0L1197.4 0C1261.1 0 1312.8 51.8 1312.8 115.4ZM1235.9 615.4V384.5C1233.1 384.7 1241.3 384.6 1156.4 384.6V615.4H1235.9ZM1197.4 923.1C1218.6 923.1 1235.9 905.8 1235.9 884.6V692.3H1118C1096.7 692.3 1079.5 675.1 1079.5 653.8V346.2C1079.5 324.9 1096.7 307.7 1118 307.7L1233.3 307.7C1234.2 307.7 1235 307.8 1235.9 307.8V115.4C1235.9 94.2 1218.6 76.9 1197.4 76.9L694.9 76.9V233.5C825.2 252.2 925.6 364.6 925.6 500 925.6 635.4 825.2 747.8 694.9 766.5V923.1H1197.4ZM694.9 688.4C782.5 670.6 848.7 592.9 848.7 500 848.7 407.1 782.5 329.4 694.9 311.6V688.4ZM618 311.6C530.3 329.4 464.1 407.1 464.1 500 464.1 592.9 530.3 670.6 618 688.4V311.6ZM76.9 615.4H156.4V384.6H76.9V615.4ZM115.4 76.9C94.2 76.9 76.9 94.2 76.9 115.4L76.9 307.7H194.9C216.1 307.7 233.3 324.9 233.3 346.2V653.8C233.3 675.1 216.1 692.3 194.9 692.3H76.9V884.6C76.9 905.8 94.2 923.1 115.4 923.1H618V766.5C487.6 747.8 387.2 635.4 387.2 500 387.2 364.6 487.6 252.2 618 233.5V76.9L115.4 76.9Z",
        "width": 1346
      },
      "search": [
        "vector-2"
      ]
    },
    {
      "uid": "6c4e5f66c27ec7e98d35a3f9c491d51f",
      "css": "star",
      "code": 59414,
      "src": "custom_icons",
      "selected": true,
      "svg": {
        "path": "M1000 392.7C1000 377.9 988.8 368.7 966.3 365.1L664.7 321.2 529.5 47.8C521.8 31.3 512 23.1 500 23.1 488 23.1 478.2 31.3 470.6 47.8L335.3 321.2 33.6 365.1C11.2 368.7 0 377.9 0 392.7 0 401.1 5 410.8 15 421.6L233.8 634.3 182.1 934.8C181.3 940.4 180.9 944.4 180.9 946.8 180.9 955.2 183 962.3 187.2 968.1 191.4 974 197.7 976.9 206.1 976.9 213.3 976.9 221.4 974.5 230.2 969.7L500 827.8 769.8 969.7C778.3 974.5 786.3 976.9 793.9 976.9 810.3 976.9 818.5 966.9 818.5 946.8 818.5 941.6 818.3 937.6 817.9 934.8L766.2 634.3 984.4 421.6C994.8 411.2 1000 401.5 1000 392.7ZM683.3 607.3L726.6 860.3 500 740.7 272.8 860.3 316.7 607.3 132.8 428.8 386.4 391.5 500 161.9 613.6 391.5 867.2 428.8 683.3 607.3Z",
        "width": 1000
      },
      "search": [
        "vector-1"
      ]
    },
    {
      "uid": "b9cc72f83dc3826a324afa09f098e39d",
      "css": "map_arrow",
      "code": 59404,
      "src": "custom_icons",
      "selected": true,
      "svg": {
        "path": "M994.5 6C988.8 0 980-1.7 972.5 1.8L11.3 453.7C3.6 457.3-1 465.7 0.2 474.3 1.3 483 7.8 489.8 16.2 491.2L447.3 565.3 496.6 982.5C497.7 991.2 504.1 998.2 512.6 999.7 513.7 999.9 514.8 1000 515.8 1000 523.1 1000 529.9 995.8 533.2 989L998 28.6C1001.6 21.1 1000.2 12.1 994.5 6Z",
        "width": 1000
      },
      "search": [
        "vector-2"
      ]
    },
    {
      "uid": "1a654fffa7088a3152118e626d12de82",
      "css": "day",
      "code": 59418,
      "src": "custom_icons",
      "selected": true,
      "svg": {
        "path": "M967 210.2C967 132.1 898.1 68.5 812.5 66.3V155.5C812.5 206.1 771.3 247.3 720.6 247.3 670 247.3 628.8 206.1 628.8 155.5V66.1H368.3V155.5C368.3 206.1 327.1 247.3 276.4 247.3 225.8 247.3 184.6 206.1 184.6 155.5V66.5C100.4 70 33 133 33 210.1V841C33 928.7 104.4 1000 192 1000H808C895.6 1000 966.9 928.7 966.9 841L967 210.2ZM897.8 841C897.8 890.6 857.5 930.8 808 930.8H192C142.5 930.8 102.2 890.6 102.2 841V361.3H897.8V841ZM236.4 40V155.5C236.4 177.6 254.3 195.5 276.4 195.5 298.5 195.5 316.4 177.6 316.4 155.5V40C316.4 17.9 298.5 0 276.4 0 254.3 0 236.4 17.9 236.4 40ZM720.6 0C698.5 0 680.6 17.9 680.6 40V155.5C680.6 177.6 698.5 195.5 720.6 195.5 742.7 195.5 760.6 177.6 760.6 155.5V40C760.6 17.9 742.7 0 720.6 0ZM384.3 839.1C429.4 839.1 463.4 826.5 486.5 801.3 509.4 776.1 521 746.9 521 713.6 521 682 511.1 657.1 491.4 638.8 486.1 633.9 481.2 630 476.9 627.1 469 621.8 468.4 618 475.9 612.2 480.1 608.9 484.2 605 488.2 600.4 501.9 584.5 508.8 565 508.8 541.8 508.8 509.2 497.3 483.1 474.3 463.7 451.3 444.3 421 434.6 383.5 434.6 363.3 434.6 346.2 437 332.3 441.9 318.4 446.8 306.4 453.8 296.3 463 282.8 476 272.9 490.2 266.6 505.6 262.4 517.8 259.5 530.6 257.9 543.9 256.8 553.4 264.3 561.1 273.8 561.1H311.3C320.9 561.1 328.2 553.3 329.6 543.8 331.3 532.3 335.1 522.6 340.9 514.8 349.5 503.2 362.8 497.4 381 497.4 396.9 497.4 409.2 502.1 417.9 511.5 426.6 520.9 431 533.1 431 548.1 431 571.2 422.5 586.6 405.4 594.2 397.9 597.5 386.2 599.7 370.3 600.8 360.8 601.4 353 609.2 353 618.7V639.4C353 649 360.8 656.6 370.3 657.2 387.2 658.1 400.2 660.3 409.2 664 430.1 672.7 440.5 690 440.5 715.8 440.5 735.3 434.9 750.2 423.6 760.6 412.4 771 399.2 776.2 384 776.2 359.3 776.2 342.3 766.7 332.9 747.8 329.9 741.5 327.8 734.3 326.6 726 325.2 716.6 317.6 708.8 308.1 708.8H266.8C257.2 708.8 249.7 716.5 250.8 726 253.4 749.4 259.3 769 268.4 784.6 290.1 820.9 328.7 839.1 384.3 839.1ZM599.2 558.4H657C666.6 558.4 674.3 566.1 674.3 575.7V812C674.3 821.6 682.1 829.3 691.6 829.3H736.1C745.7 829.3 753.4 821.6 753.4 812V453.8C753.4 444.2 745.7 436.5 736.1 436.5H706.2C696.7 436.5 688.8 440.1 687.9 444.4 687.4 446.7 686.8 449.3 685.9 452.2 682.5 463.9 677.5 473.3 670.8 480.3 661.1 490.6 648.5 497.5 633 500.9 625.8 502.5 614.5 503.9 599.2 504.9 589.6 505.5 581.9 513.6 581.9 523.1V541.1C581.9 550.6 589.7 558.4 599.2 558.4Z",
        "width": 1000
      },
      "search": [
        "vector-1"
      ]
    },
    {
      "uid": "6dc0af63ba90ec60dd17a90c80006229",
      "css": "phone",
      "code": 59419,
      "src": "custom_icons",
      "selected": true,
      "svg": {
        "path": "M999.5 788.7C1001.6 804.9 996.7 819 984.7 831L843.9 970.8C837.6 977.8 829.3 983.8 819 988.8 808.8 993.7 798.7 996.9 788.9 998.3 788.2 998.3 786 998.5 782.5 998.8 779 999.2 774.4 999.3 768.7 999.3 755.3 999.3 733.6 997.1 703.6 992.5 673.6 987.9 636.9 976.6 593.5 958.6 550.1 940.6 500.9 913.6 445.9 877.6 390.8 841.6 332.2 792.2 270.1 729.4 220.7 680.7 179.8 634.1 147.3 589.7 114.9 545.2 88.8 504.1 69 466.3 49.2 428.6 34.4 394.3 24.5 363.6 14.6 332.9 7.9 306.5 4.4 284.2 0.9 262-0.5 244.5 0.2 231.8 0.9 219.1 1.2 212.1 1.2 210.7 2.6 200.8 5.8 190.7 10.8 180.5 15.7 170.3 21.7 162 28.8 155.6L169.6 14.8C179.4 4.9 190.7 0 203.4 0 212.6 0 220.7 2.6 227.8 7.9 234.8 13.2 240.8 19.8 245.8 27.5L359.1 242.4C365.4 253.7 367.2 266.1 364.3 279.5 361.5 292.9 355.5 304.2 346.3 313.4L294.5 365.2C293.1 366.6 291.8 368.9 290.8 372.1 289.7 375.3 289.2 377.9 289.2 380 292 394.9 298.4 411.8 308.2 430.9 316.7 447.8 329.8 468.4 347.4 492.8 365.1 517.1 390.1 545.2 422.6 577 454.3 609.4 482.6 634.6 507.3 652.6 532 670.6 552.6 683.9 569.2 692.3 585.8 700.8 598.5 705.9 607.3 707.7L620.5 710.3C621.9 710.3 624.2 709.8 627.4 708.8 630.6 707.7 632.9 706.5 634.3 705L694.6 643.6C707.3 632.4 722.2 626.7 739.1 626.7 751.1 626.7 760.6 628.8 767.7 633.1H768.7L973 753.7C987.9 762.9 996.7 774.6 999.5 788.7Z",
        "width": 1000
      },
      "search": [
        "vector"
      ]
    }
  ]
}